{
    "key": "group_5b843692e706f",
    "title": "Template: Menu",
    "fields": [
        {
            "key": "field_5b843733c70d1",
            "label": "Sections",
            "name": "sections",
            "aria-label": "",
            "type": "flexible_content",
            "instructions": "",
            "required": 0,
            "conditional_logic": 0,
            "wrapper": {
                "width": "",
                "class": "",
                "id": ""
            },
            "layouts": {
                "5b84374bcec8b": {
                    "key": "5b84374bcec8b",
                    "name": "items",
                    "label": "Items",
                    "display": "block",
                    "sub_fields": [
                        {
                            "key": "field_5b843ac5a1e60",
                            "label": "Section Title",
                            "name": "section_title",
                            "aria-label": "",
                            "type": "text",
                            "instructions": "",
                            "required": 0,
                            "conditional_logic": 0,
                            "wrapper": {
                                "width": "",
                                "class": "",
                                "id": ""
                            },
                            "default_value": "",
                            "placeholder": "",
                            "prepend": "",
                            "append": "",
                            "maxlength": ""
                        },
                        {
                            "key": "field_5b843ab4a1e5f",
                            "label": "Food Items",
                            "name": "food_items",
                            "aria-label": "",
                            "type": "relationship",
                            "instructions": "",
                            "required": 0,
                            "conditional_logic": 0,
                            "wrapper": {
                                "width": "",
                                "class": "",
                                "id": ""
                            },
                            "post_type": [
                                "food"
                            ],
                            "taxonomy": [],
                            "filters": [
                                "search"
                            ],
                            "elements": "",
                            "min": "",
                            "max": "",
                            "return_format": "object",
                            "bidirectional_target": []
                        }
                    ],
                    "min": "",
                    "max": ""
                },
                "layout_5b84375ec70d2": {
                    "key": "layout_5b84375ec70d2",
                    "name": "overview",
                    "label": "Overview",
                    "display": "block",
                    "sub_fields": [
                        {
                            "key": "field_5b843aea0cc2c",
                            "label": "Section Title",
                            "name": "section_title",
                            "aria-label": "",
                            "type": "text",
                            "instructions": "",
                            "required": 0,
                            "conditional_logic": 0,
                            "wrapper": {
                                "width": "",
                                "class": "",
                                "id": ""
                            },
                            "default_value": "",
                            "placeholder": "",
                            "prepend": "",
                            "append": "",
                            "maxlength": ""
                        },
                        {
                            "key": "field_5b843aff0cc2e",
                            "label": "Copy",
                            "name": "copy",
                            "aria-label": "",
                            "type": "wysiwyg",
                            "instructions": "",
                            "required": 0,
                            "conditional_logic": 0,
                            "wrapper": {
                                "width": "",
                                "class": "",
                                "id": ""
                            },
                            "default_value": "",
                            "tabs": "all",
                            "toolbar": "full",
                            "media_upload": 0,
                            "delay": 0
                        },
                        {
                            "key": "field_5b843af80cc2d",
                            "label": "Photo",
                            "name": "photo",
                            "aria-label": "",
                            "type": "image",
                            "instructions": "",
                            "required": 0,
                            "conditional_logic": 0,
                            "wrapper": {
                                "width": "",
                                "class": "",
                                "id": ""
                            },
                            "return_format": "array",
                            "preview_size": "medium",
                            "library": "all",
                            "min_width": "",
                            "min_height": "",
                            "min_size": "",
                            "max_width": "",
                            "max_height": "",
                            "max_size": "",
                            "mime_types": ""
                        }
                    ],
                    "min": "",
                    "max": ""
                }
            },
            "button_label": "+ Add Section",
            "min": "",
            "max": ""
        }
    ],
    "location": [
        [
            {
                "param": "page_template",
                "operator": "==",
                "value": "menu.php"
            }
        ]
    ],
    "menu_order": 0,
    "position": "normal",
    "style": "seamless",
    "label_placement": "top",
    "instruction_placement": "label",
    "hide_on_screen": [
        "the_content",
        "excerpt",
        "discussion",
        "comments",
        "revisions",
        "slug",
        "author",
        "format",
        "featured_image",
        "categories",
        "tags",
        "send-trackbacks"
    ],
    "active": true,
    "description": "",
    "show_in_rest": 0,
    "modified": 1736276334
}
